…
``` r
results_ci = 
  data_results %>% 
  filter(term == "victim_racenon-white") %>% 
  mutate(odds_ratio = exp(estimate), 
         conf_low = exp(conf.low), conf_high = exp(conf.high)) %>% 
  select(city_state, odds_ratio, conf_low, conf_high)

results_ci
```

    ## # A tibble: 47 x 4
    ##    city_state      odds_ratio conf_low conf_high
    ##    <chr>                <dbl>    <dbl>     <dbl>
    ##  1 Albuquerque, NM      0.741   0.449      1.22 
    ##  2 Atlanta, GA          0.753   0.424      1.30 
    ##  3 Baltimore, MD        0.441   0.312      0.620
    ##  4 Baton Rouge, LA      0.668   0.304      1.41 
    ##  5 Birmingham, AL       1.04    0.612      1.75 
    ##  6 Boston, MA           0.115   0.0425     0.259
    ##  7 Buffalo, NY          0.390   0.210      0.710
    ##  8 Charlotte, NC        0.558   0.313      0.951
    ##  9 Chicago, IL          0.562   0.432      0.734
    ## 10 Cincinnati, OH       0.318   0.180      0.541
    ## # ... with 37 more rows
…
